{
  "back4app": {
    "dev": {
      "X-Parse-Application-Id": "xLWKrOqVNy3O1u3z9ovoalO2XFuKQn0NlHPksJV6",
      "X-Parse-Client-Key": "Ib1NDOh4ph4fkCci0IIxWF01flSxhpJf6FO1gAkQ",
      "serverUrl": "https://parseapi.back4app.com/"
    }
  }
}